{
  "version": 1,
  "generated_at": "2026-07-24T00:08:31Z",
  "source": "medrxiv",
  "source_label": "medRxiv",
  "count": 501,
  "chunked": true,
  "chunk_key": "dates",
  "page_size": 100,
  "page_count": 6,
  "pages": [
    {
      "page": 1,
      "count": 100,
      "api_path": "api/source/medrxiv/0001.json"
    },
    {
      "page": 2,
      "count": 100,
      "api_path": "api/source/medrxiv/0002.json"
    },
    {
      "page": 3,
      "count": 100,
      "api_path": "api/source/medrxiv/0003.json"
    },
    {
      "page": 4,
      "count": 100,
      "api_path": "api/source/medrxiv/0004.json"
    },
    {
      "page": 5,
      "count": 100,
      "api_path": "api/source/medrxiv/0005.json"
    },
    {
      "page": 6,
      "count": 1,
      "api_path": "api/source/medrxiv/0006.json"
    }
  ]
}
