{
  "version": 1,
  "generated_at": "2026-06-17T00:18:46Z",
  "source": "arxiv",
  "source_label": "arXiv",
  "count": 464,
  "chunked": true,
  "chunk_key": "dates",
  "page_size": 100,
  "page_count": 5,
  "pages": [
    {
      "page": 1,
      "count": 100,
      "api_path": "api/source/arxiv/0001.json"
    },
    {
      "page": 2,
      "count": 100,
      "api_path": "api/source/arxiv/0002.json"
    },
    {
      "page": 3,
      "count": 100,
      "api_path": "api/source/arxiv/0003.json"
    },
    {
      "page": 4,
      "count": 100,
      "api_path": "api/source/arxiv/0004.json"
    },
    {
      "page": 5,
      "count": 64,
      "api_path": "api/source/arxiv/0005.json"
    }
  ]
}
