{
  "version": 1,
  "generated_at": "2026-05-14T00:01:21Z",
  "source": "medrxiv",
  "source_label": "medRxiv",
  "count": 430,
  "chunked": true,
  "chunk_key": "dates",
  "page_size": 100,
  "page_count": 5,
  "pages": [
    {
      "page": 1,
      "count": 100,
      "api_path": "api/source/medrxiv/0001.json"
    },
    {
      "page": 2,
      "count": 100,
      "api_path": "api/source/medrxiv/0002.json"
    },
    {
      "page": 3,
      "count": 100,
      "api_path": "api/source/medrxiv/0003.json"
    },
    {
      "page": 4,
      "count": 100,
      "api_path": "api/source/medrxiv/0004.json"
    },
    {
      "page": 5,
      "count": 30,
      "api_path": "api/source/medrxiv/0005.json"
    }
  ]
}
